{
  "log": {
    "version": "1.2",
    "creator": {
      "name": "WebInspector",
      "version": "537.36"
    },
    "pages": [],
    "entries": [
      {
        "_connectionId": "31416",
        "_initiator": {
          "type": "script",
          "stack": {
            "callFrames": [
              {
                "functionName": "",
                "scriptId": "11",
                "url": "https://bo.nalog.gov.ru/static/js/main.2fc29fac.js",
                "lineNumber": 0,
                "columnNumber": 1061968
              },
              {
                "functionName": "",
                "scriptId": "11",
                "url": "https://bo.nalog.gov.ru/static/js/main.2fc29fac.js",
                "lineNumber": 0,
                "columnNumber": 3879
              },
              {
                "functionName": "",
                "scriptId": "11",
                "url": "https://bo.nalog.gov.ru/static/js/main.2fc29fac.js",
                "lineNumber": 0,
                "columnNumber": 3984
              },
              {
                "functionName": "",
                "scriptId": "11",
                "url": "https://bo.nalog.gov.ru/static/js/main.2fc29fac.js",
                "lineNumber": 0,
                "columnNumber": 2908
              },
              {
                "functionName": "",
                "scriptId": "11",
                "url": "https://bo.nalog.gov.ru/static/js/main.2fc29fac.js",
                "lineNumber": 0,
                "columnNumber": 2645
              },
              {
                "functionName": "",
                "scriptId": "11",
                "url": "https://bo.nalog.gov.ru/static/js/main.2fc29fac.js",
                "lineNumber": 0,
                "columnNumber": 1061851
              },
              {
                "functionName": "h.extendedSearch",
                "scriptId": "11",
                "url": "https://bo.nalog.gov.ru/static/js/main.2fc29fac.js",
                "lineNumber": 0,
                "columnNumber": 1039284
              },
              {
                "functionName": "e.findByQueryObject",
                "scriptId": "11",
                "url": "https://bo.nalog.gov.ru/static/js/main.2fc29fac.js",
                "lineNumber": 0,
                "columnNumber": 2613534
              },
              {
                "functionName": "e.searchWithPage",
                "scriptId": "11",
                "url": "https://bo.nalog.gov.ru/static/js/main.2fc29fac.js",
                "lineNumber": 0,
                "columnNumber": 401294
              },
              {
                "functionName": "he",
                "scriptId": "11",
                "url": "https://bo.nalog.gov.ru/static/js/main.2fc29fac.js",
                "lineNumber": 0,
                "columnNumber": 113776
              },
              {
                "functionName": "n",
                "scriptId": "11",
                "url": "https://bo.nalog.gov.ru/static/js/main.2fc29fac.js",
                "lineNumber": 0,
                "columnNumber": 113391
              },
              {
                "functionName": "e.refresh",
                "scriptId": "11",
                "url": "https://bo.nalog.gov.ru/static/js/main.2fc29fac.js",
                "lineNumber": 0,
                "columnNumber": 400152
              },
              {
                "functionName": "t.componentDidMount",
                "scriptId": "11",
                "url": "https://bo.nalog.gov.ru/static/js/main.2fc29fac.js",
                "lineNumber": 0,
                "columnNumber": 4143612
              },
              {
                "functionName": "B",
                "scriptId": "11",
                "url": "https://bo.nalog.gov.ru/static/js/main.2fc29fac.js",
                "lineNumber": 0,
                "columnNumber": 15699
              },
              {
                "functionName": "",
                "scriptId": "11",
                "url": "https://bo.nalog.gov.ru/static/js/main.2fc29fac.js",
                "lineNumber": 0,
                "columnNumber": 15906
              },
              {
                "functionName": "Mg",
                "scriptId": "11",
                "url": "https://bo.nalog.gov.ru/static/js/main.2fc29fac.js",
                "lineNumber": 0,
                "columnNumber": 2339261
              },
              {
                "functionName": "Sv",
                "scriptId": "11",
                "url": "https://bo.nalog.gov.ru/static/js/main.2fc29fac.js",
                "lineNumber": 0,
                "columnNumber": 2360373
              },
              {
                "functionName": "b",
                "scriptId": "11",
                "url": "https://bo.nalog.gov.ru/static/js/main.2fc29fac.js",
                "lineNumber": 0,
                "columnNumber": 2191756
              },
              {
                "functionName": "Sr",
                "scriptId": "11",
                "url": "https://bo.nalog.gov.ru/static/js/main.2fc29fac.js",
                "lineNumber": 0,
                "columnNumber": 2192082
              },
              {
                "functionName": "Ir",
                "scriptId": "11",
                "url": "https://bo.nalog.gov.ru/static/js/main.2fc29fac.js",
                "lineNumber": 0,
                "columnNumber": 2193043
              },
              {
                "functionName": "",
                "scriptId": "11",
                "url": "https://bo.nalog.gov.ru/static/js/main.2fc29fac.js",
                "lineNumber": 0,
                "columnNumber": 2358977
              },
              {
                "functionName": "",
                "scriptId": "11",
                "url": "https://bo.nalog.gov.ru/static/js/main.2fc29fac.js",
                "lineNumber": 0,
                "columnNumber": 2394424
              },
              {
                "functionName": "ud",
                "scriptId": "11",
                "url": "https://bo.nalog.gov.ru/static/js/main.2fc29fac.js",
                "lineNumber": 0,
                "columnNumber": 2246207
              },
              {
                "functionName": "Cv",
                "scriptId": "11",
                "url": "https://bo.nalog.gov.ru/static/js/main.2fc29fac.js",
                "lineNumber": 0,
                "columnNumber": 2357551
              },
              {
                "functionName": "rv",
                "scriptId": "11",
                "url": "https://bo.nalog.gov.ru/static/js/main.2fc29fac.js",
                "lineNumber": 0,
                "columnNumber": 2354207
              },
              {
                "functionName": "",
                "scriptId": "11",
                "url": "https://bo.nalog.gov.ru/static/js/main.2fc29fac.js",
                "lineNumber": 0,
                "columnNumber": 2246462
              },
              {
                "functionName": "",
                "scriptId": "11",
                "url": "https://bo.nalog.gov.ru/static/js/main.2fc29fac.js",
                "lineNumber": 0,
                "columnNumber": 2394424
              },
              {
                "functionName": "ud",
                "scriptId": "11",
                "url": "https://bo.nalog.gov.ru/static/js/main.2fc29fac.js",
                "lineNumber": 0,
                "columnNumber": 2246207
              },
              {
                "functionName": "hd",
                "scriptId": "11",
                "url": "https://bo.nalog.gov.ru/static/js/main.2fc29fac.js",
                "lineNumber": 0,
                "columnNumber": 2246408
              },
              {
                "functionName": "fd",
                "scriptId": "11",
                "url": "https://bo.nalog.gov.ru/static/js/main.2fc29fac.js",
                "lineNumber": 0,
                "columnNumber": 2246343
              },
              {
                "functionName": "",
                "scriptId": "11",
                "url": "https://bo.nalog.gov.ru/static/js/main.2fc29fac.js",
                "lineNumber": 0,
                "columnNumber": 2384109
              },
              {
                "functionName": "",
                "scriptId": "11",
                "url": "https://bo.nalog.gov.ru/static/js/main.2fc29fac.js",
                "lineNumber": 0,
                "columnNumber": 2204269
              },
              {
                "functionName": "bo",
                "scriptId": "11",
                "url": "https://bo.nalog.gov.ru/static/js/main.2fc29fac.js",
                "lineNumber": 0,
                "columnNumber": 2204305
              }
            ]
          }
        },
        "_priority": "High",
        "_resourceType": "fetch",
        "cache": {},
        "connection": "443",
        "request": {
          "method": "GET",
          "url": "https://bo.nalog.gov.ru/advanced-search/organizations?allFieldsMatch=false&name=%D0%A1%D0%B1%D0%B5%D1%80&page=0&size=20",
          "httpVersion": "HTTP/1.1",
          "headers": [
            {
              "name": "Accept",
              "value": "*/*"
            },
            {
              "name": "Accept-Encoding",
              "value": "gzip, deflate, br, zstd"
            },
            {
              "name": "Accept-Language",
              "value": "en,ru;q=0.9,ru-RU;q=0.8"
            },
            {
              "name": "Connection",
              "value": "keep-alive"
            },
            {
              "name": "Host",
              "value": "bo.nalog.gov.ru"
            },
            {
              "name": "Referer",
              "value": "https://bo.nalog.gov.ru/search?allFieldsMatch=false&name=%D0%A1%D0%B1%D0%B5%D1%80"
            },
            {
              "name": "Sec-Fetch-Dest",
              "value": "empty"
            },
            {
              "name": "Sec-Fetch-Mode",
              "value": "cors"
            },
            {
              "name": "Sec-Fetch-Site",
              "value": "same-origin"
            },
            {
              "name": "Sec-GPC",
              "value": "1"
            },
            {
              "name": "User-Agent",
              "value": "Mozilla/5.0 (Windows NT 10.0; Win64; x64) AppleWebKit/537.36 (KHTML, like Gecko) Chrome/138.0.0.0 Safari/537.36"
            },
            {
              "name": "sec-ch-ua",
              "value": "\"Not)A;Brand\";v=\"8\", \"Chromium\";v=\"138\", \"Brave\";v=\"138\""
            },
            {
              "name": "sec-ch-ua-mobile",
              "value": "?0"
            },
            {
              "name": "sec-ch-ua-platform",
              "value": "\"Windows\""
            }
          ],
          "queryString": [
            {
              "name": "allFieldsMatch",
              "value": "false"
            },
            {
              "name": "name",
              "value": "%D0%A1%D0%B1%D0%B5%D1%80"
            },
            {
              "name": "page",
              "value": "0"
            },
            {
              "name": "size",
              "value": "20"
            }
          ],
          "cookies": [],
          "headersSize": 764,
          "bodySize": 0
        },
        "response": {
          "status": 200,
          "statusText": "",
          "httpVersion": "HTTP/1.1",
          "headers": [
            {
              "name": "Connection",
              "value": "keep-alive"
            },
            {
              "name": "Content-Type",
              "value": "application/json"
            },
            {
              "name": "Date",
              "value": "Fri, 18 Jul 2025 20:30:49 GMT"
            },
            {
              "name": "Server",
              "value": "nginx/1.26.1"
            },
            {
              "name": "Transfer-Encoding",
              "value": "chunked"
            }
          ],
          "cookies": [],
          "content": {
            "size": 12748,
            "mimeType": "application/json",
            "compression": -14,
            "text": "{\"content\":[{\"id\":3529670,\"inn\":\"4826041657\",\"shortName\":\"ООО \\\"<strong>СБЕР</strong>\\\"\",\"ogrn\":\"1044800159084\",\"index\":\"398059\",\"region\":\"ЛИПЕЦКАЯ\",\"district\":null,\"city\":\"ЛИПЕЦК\",\"settlement\":null,\"street\":\"ПЕРВОМАЙСКАЯ\",\"house\":\"2\",\"building\":null,\"office\":null,\"okved2\":\"56.10\",\"okopf\":12300,\"okato\":null,\"okpo\":null,\"okfs\":null,\"statusCode\":\"INACTIVE\",\"statusDate\":\"2021-07-09\",\"bfo\":{\"period\":\"2021\",\"actualBfoDate\":\"2021-06-07\",\"gainSum\":null,\"knd\":\"0710095 0710099\",\"hasAz\":false,\"hasKs\":false,\"actualCorrectionNumber\":0,\"actualCorrectionDate\":\"2021-06-07\",\"isCb\":false,\"bfoPeriodTypes\":[12]}},{\"id\":11245390,\"inn\":\"7736326460\",\"shortName\":\"ООО \\\"<strong>СБЕР</strong>-ТУР\\\"\",\"ogrn\":\"1207700043209\",\"index\":\"119296\",\"region\":\"МОСКВА\",\"district\":null,\"city\":null,\"settlement\":null,\"street\":\"ВАВИЛОВА\",\"house\":\"56\",\"building\":\"1\",\"office\":\"88\",\"okved2\":\"79.11\",\"okopf\":12300,\"okato\":null,\"okpo\":null,\"okfs\":null,\"statusCode\":\"INACTIVE\",\"statusDate\":\"2024-07-25\",\"bfo\":{\"period\":\"2021\",\"actualBfoDate\":\"2022-01-04\",\"gainSum\":null,\"knd\":\"0710099\",\"hasAz\":false,\"hasKs\":false,\"actualCorrectionNumber\":0,\"actualCorrectionDate\":\"2022-01-04\",\"isCb\":false,\"bfoPeriodTypes\":[12]}},{\"id\":11545361,\"inn\":\"7730262971\",\"shortName\":\"ООО \\\"<strong>СБЕР</strong> ТАКС ФРИ\\\"\",\"ogrn\":\"1217700116083\",\"index\":\"121170\",\"region\":\"МОСКВА\",\"district\":null,\"city\":null,\"settlement\":null,\"street\":\"КУТУЗОВСКИЙ\",\"house\":\"32\",\"building\":\"1\",\"office\":null,\"okved2\":\"64.99\",\"okopf\":12300,\"okato\":null,\"okpo\":null,\"okfs\":null,\"statusCode\":\"ACTIVE\",\"statusDate\":\"2021-03-16\",\"bfo\":{\"period\":\"2024\",\"actualBfoDate\":\"2025-03-31\",\"gainSum\":1278,\"knd\":\"0710099\",\"hasAz\":false,\"hasKs\":false,\"actualCorrectionNumber\":0,\"actualCorrectionDate\":\"2025-03-31\",\"isCb\":false,\"bfoPeriodTypes\":[12]}},{\"id\":10854965,\"inn\":\"3459077444\",\"shortName\":\"ООО \\\"ТК \\\"А<strong>СБЕР</strong>\\\"\\\"\",\"ogrn\":\"1183443019385\",\"index\":\"400078\",\"region\":\"ВОЛГОГРАДСКАЯ\",\"district\":null,\"city\":\"ВОЛГОГРАД\",\"settlement\":null,\"street\":\"ИМ. В.И. ЛЕНИНА\",\"house\":\"102\",\"building\":null,\"office\":\"311\",\"okved2\":\"46.69\",\"okopf\":12300,\"okato\":null,\"okpo\":null,\"okfs\":null,\"statusCode\":\"INACTIVE\",\"statusDate\":\"2023-11-15\",\"bfo\":{\"period\":\"2020\",\"actualBfoDate\":null,\"gainSum\":135,\"knd\":\"0710099\",\"hasAz\":false,\"hasKs\":false,\"actualCorrectionNumber\":0,\"actualCorrectionDate\":\"2021-02-16\",\"isCb\":false,\"bfoPeriodTypes\":[12]}},{\"id\":11670029,\"inn\":\"3444276655\",\"shortName\":\"ООО \\\"<strong>СБЕР</strong>-ЛИФТ\\\"\",\"ogrn\":\"1213400008964\",\"index\":\"400005\",\"region\":\"ВОЛГОГРАДСКАЯ\",\"district\":null,\"city\":\"Волгоград\",\"settlement\":null,\"street\":\"7-Й ГВАРДЕЙСКОЙ\",\"house\":\"10\",\"building\":null,\"office\":\"45\",\"okved2\":\"43.29\",\"okopf\":12300,\"okato\":null,\"okpo\":null,\"okfs\":null,\"statusCode\":\"ACTIVE\",\"statusDate\":\"2024-04-25\",\"bfo\":{\"period\":\"2023\",\"actualBfoDate\":\"2024-03-24\",\"gainSum\":3916,\"knd\":\"0710096\",\"hasAz\":false,\"hasKs\":false,\"actualCorrectionNumber\":0,\"actualCorrectionDate\":\"2024-03-24\",\"isCb\":false,\"bfoPeriodTypes\":[12]}},{\"id\":10831134,\"inn\":\"9705124940\",\"shortName\":\"ООО \\\"<strong>СБЕР</strong> ЛИГАЛ\\\"\",\"ogrn\":\"1187746905004\",\"index\":\"117312\",\"region\":\"МОСКВА\",\"district\":null,\"city\":null,\"settlement\":null,\"street\":\"ВАВИЛОВА\",\"house\":\"19\",\"building\":null,\"office\":null,\"okved2\":\"69.10\",\"okopf\":12300,\"okato\":null,\"okpo\":null,\"okfs\":null,\"statusCode\":\"ACTIVE\",\"statusDate\":\"2018-10-30\",\"bfo\":{\"period\":\"2024\",\"actualBfoDate\":\"2025-03-24\",\"gainSum\":689787,\"knd\":\"0710099\",\"hasAz\":false,\"hasKs\":false,\"actualCorrectionNumber\":0,\"actualCorrectionDate\":\"2025-03-24\",\"isCb\":false,\"bfoPeriodTypes\":[12]}},{\"id\":10088285,\"inn\":\"0608044058\",\"shortName\":\"ООО \\\"<strong>СБЕР</strong>-СТРОЙ\\\"\",\"ogrn\":\"1170608000573\",\"index\":\"386001\",\"region\":\"ИНГУШЕТИЯ\",\"district\":null,\"city\":\"МАГАС\",\"settlement\":null,\"street\":\"ЧАХКИЕВА\",\"house\":\"40/6\",\"building\":null,\"office\":\"16\",\"okved2\":\"41.10\",\"okopf\":12300,\"okato\":null,\"okpo\":null,\"okfs\":null,\"statusCode\":\"ACTIVE\",\"statusDate\":\"2017-02-01\",\"bfo\":{\"period\":\"2024\",\"actualBfoDate\":\"2025-03-20\",\"gainSum\":0,\"knd\":\"0710099\",\"hasAz\":false,\"hasKs\":false,\"actualCorrectionNumber\":0,\"actualCorrectionDate\":\"2025-03-20\",\"isCb\":false,\"bfoPeriodTypes\":[12]}},{\"id\":9776931,\"inn\":\"6725030740\",\"shortName\":\"ООО \\\"ВА<strong>СБЕР</strong>\\\"\",\"ogrn\":\"1166733061538\",\"index\":\"216580\",\"region\":\"СМОЛЕНСКАЯ\",\"district\":\"ЕРШИЧСКИЙ\",\"city\":null,\"settlement\":\"ЕРШИЧИ\",\"street\":\"СОСНОВАЯ\",\"house\":\"9\",\"building\":null,\"office\":null,\"okved2\":\"49.4\",\"okopf\":12300,\"okato\":null,\"okpo\":null,\"okfs\":null,\"statusCode\":\"ACTIVE\",\"statusDate\":\"2016-05-31\",\"bfo\":{\"period\":\"2024\",\"actualBfoDate\":\"2025-02-23\",\"gainSum\":921,\"knd\":\"0710096\",\"hasAz\":false,\"hasKs\":false,\"actualCorrectionNumber\":0,\"actualCorrectionDate\":\"2025-02-23\",\"isCb\":false,\"bfoPeriodTypes\":[12]}},{\"id\":5289876,\"inn\":\"7730639956\",\"shortName\":\"ООО \\\"АЙ<strong>СБЕР</strong>\\\"\",\"ogrn\":\"1117746161488\",\"index\":\"121096\",\"region\":\"МОСКВА\",\"district\":null,\"city\":null,\"settlement\":null,\"street\":\"2-Я ФИЛЕВСКАЯ\",\"house\":\"8\",\"building\":\"1\",\"office\":\"III/1\",\"okved2\":\"46.90\",\"okopf\":12300,\"okato\":null,\"okpo\":null,\"okfs\":null,\"statusCode\":\"ACTIVE\",\"statusDate\":\"2011-03-05\",\"bfo\":{\"period\":\"2024\",\"actualBfoDate\":\"2025-03-19\",\"gainSum\":111897,\"knd\":\"0710099\",\"hasAz\":false,\"hasKs\":false,\"actualCorrectionNumber\":0,\"actualCorrectionDate\":\"2025-03-19\",\"isCb\":false,\"bfoPeriodTypes\":[12]}},{\"id\":9329070,\"inn\":\"1326231936\",\"shortName\":\"ООО \\\"РЕ<strong>СБЕР</strong>\\\"\",\"ogrn\":\"1151326020284\",\"index\":\"430005\",\"region\":\"МОРДОВИЯ\",\"district\":null,\"city\":\"САРАНСК\",\"settlement\":null,\"street\":\"БОЛЬШЕВИСТСКАЯ\",\"house\":\"60\",\"building\":null,\"office\":\"806\",\"okved2\":\"35.30\",\"okopf\":12300,\"okato\":null,\"okpo\":null,\"okfs\":null,\"statusCode\":\"ACTIVE\",\"statusDate\":\"2015-07-23\",\"bfo\":{\"period\":\"2024\",\"actualBfoDate\":\"2025-03-11\",\"gainSum\":0,\"knd\":\"0710096\",\"hasAz\":false,\"hasKs\":false,\"actualCorrectionNumber\":0,\"actualCorrectionDate\":\"2025-03-11\",\"isCb\":false,\"bfoPeriodTypes\":[12]}},{\"id\":10020183,\"inn\":\"7708305796\",\"shortName\":\"ООО \\\"МА<strong>СБЕР</strong>\\\"\",\"ogrn\":\"5167746403072\",\"index\":\"107078\",\"region\":\"МОСКВА\",\"district\":null,\"city\":null,\"settlement\":null,\"street\":\"СКОРНЯЖНЫЙ\",\"house\":\"7\",\"building\":\"1\",\"office\":\"II\",\"okved2\":\"47.25.1\",\"okopf\":12300,\"okato\":null,\"okpo\":null,\"okfs\":null,\"statusCode\":\"ACTIVE\",\"statusDate\":\"2016-12-02\",\"bfo\":{\"period\":\"2023\",\"actualBfoDate\":\"2024-03-04\",\"gainSum\":null,\"knd\":\"0710096\",\"hasAz\":false,\"hasKs\":false,\"actualCorrectionNumber\":0,\"actualCorrectionDate\":\"2024-03-04\",\"isCb\":false,\"bfoPeriodTypes\":[12]}},{\"id\":11064595,\"inn\":\"7455035521\",\"shortName\":\"ООО \\\"РА<strong>СБЕР</strong>\\\"\",\"ogrn\":\"1197456027823\",\"index\":\"455034\",\"region\":\"ЧЕЛЯБИНСКАЯ\",\"district\":null,\"city\":\"МАГНИТОГОРСК\",\"settlement\":null,\"street\":\"50-ЛЕТИЯ МАГНИТКИ\",\"house\":\"67/1\",\"building\":null,\"office\":\"206\",\"okved2\":\"43.29\",\"okopf\":12300,\"okato\":null,\"okpo\":null,\"okfs\":null,\"statusCode\":\"INACTIVE\",\"statusDate\":\"2023-06-29\",\"bfo\":{\"period\":\"2021\",\"actualBfoDate\":\"2022-03-28\",\"gainSum\":0,\"knd\":\"0710099\",\"hasAz\":false,\"hasKs\":false,\"actualCorrectionNumber\":0,\"actualCorrectionDate\":\"2022-03-28\",\"isCb\":false,\"bfoPeriodTypes\":[12]}},{\"id\":2972157,\"inn\":\"7719591718\",\"shortName\":\"ООО \\\"А<strong>СБЕР</strong>Г АС\\\"\",\"ogrn\":\"1067746623108\",\"index\":\"143405\",\"region\":\"МОСКОВСКАЯ\",\"district\":null,\"city\":\"КРАСНОГОРСК\",\"settlement\":null,\"street\":\"ЮЖНЫЙ\",\"house\":\"6\",\"building\":null,\"office\":\"1/V\",\"okved2\":\"46.69.5\",\"okopf\":12300,\"okato\":null,\"okpo\":null,\"okfs\":null,\"statusCode\":\"ACTIVE\",\"statusDate\":\"2006-05-24\",\"bfo\":{\"period\":\"2024\",\"actualBfoDate\":\"2025-03-26\",\"gainSum\":457236,\"knd\":\"0710096\",\"hasAz\":false,\"hasKs\":false,\"actualCorrectionNumber\":0,\"actualCorrectionDate\":\"2025-03-26\",\"isCb\":false,\"bfoPeriodTypes\":[12]}},{\"id\":9357430,\"inn\":\"7723403910\",\"shortName\":\"ООО \\\"АЙ-<strong>СБЕР</strong>Г ГРУПП\\\"\",\"ogrn\":\"1157746736399\",\"index\":\"109559\",\"region\":\"МОСКВА\",\"district\":null,\"city\":null,\"settlement\":null,\"street\":\"ВЕРХНИЕ ПОЛЯ\",\"house\":\"33\",\"building\":\"1\",\"office\":\"259\",\"okved2\":\"46.90\",\"okopf\":12300,\"okato\":null,\"okpo\":null,\"okfs\":null,\"statusCode\":\"ACTIVE\",\"statusDate\":\"2015-08-11\",\"bfo\":{\"period\":\"2024\",\"actualBfoDate\":\"2025-01-09\",\"gainSum\":null,\"knd\":\"0710099\",\"hasAz\":false,\"hasKs\":false,\"actualCorrectionNumber\":0,\"actualCorrectionDate\":\"2025-01-09\",\"isCb\":false,\"bfoPeriodTypes\":[12]}},{\"id\":11468529,\"inn\":\"7714467185\",\"shortName\":\"ООО \\\"<strong>СБЕР</strong> УСЛУГИ\\\"\",\"ogrn\":\"1207700478688\",\"index\":\"125124\",\"region\":\"МОСКВА\",\"district\":null,\"city\":null,\"settlement\":null,\"street\":\"3-Я ЯМСКОГО ПОЛЯ\",\"house\":\"2\",\"building\":\"1\",\"office\":\"V\",\"okved2\":\"63.11\",\"okopf\":12300,\"okato\":null,\"okpo\":null,\"okfs\":null,\"statusCode\":\"INACTIVE\",\"statusDate\":\"2025-01-10\",\"bfo\":{\"period\":\"2023\",\"actualBfoDate\":\"2024-04-02\",\"gainSum\":306,\"knd\":\"0710099\",\"hasAz\":false,\"hasKs\":false,\"actualCorrectionNumber\":1,\"actualCorrectionDate\":\"2024-04-02\",\"isCb\":false,\"bfoPeriodTypes\":[12]}},{\"id\":12141193,\"inn\":\"9106016737\",\"shortName\":\"ООО \\\"<strong>СБЕР</strong> ЭНЕРГО\\\"\",\"ogrn\":\"1239100004043\",\"index\":\"297112\",\"region\":\"КРЫМ\",\"district\":\"НИЖНЕГОРСКИЙ\",\"city\":null,\"settlement\":\"ЧКАЛОВО\",\"street\":\"ОГОРОДНЯЯ\",\"house\":\"30\",\"building\":null,\"office\":null,\"okved2\":\"71.12.2\",\"okopf\":12300,\"okato\":null,\"okpo\":null,\"okfs\":null,\"statusCode\":\"ACTIVE\",\"statusDate\":\"2023-03-29\",\"bfo\":{\"period\":\"2024\",\"actualBfoDate\":\"2025-02-24\",\"gainSum\":0,\"knd\":\"0710096\",\"hasAz\":false,\"hasKs\":false,\"actualCorrectionNumber\":0,\"actualCorrectionDate\":\"2025-02-24\",\"isCb\":false,\"bfoPeriodTypes\":[12]}},{\"id\":6968108,\"inn\":\"6151003710\",\"shortName\":\"ПК \\\"АЙ<strong>СБЕР</strong>Г\\\"\",\"ogrn\":\"1026102483802\",\"index\":\"346906\",\"region\":\"РОСТОВСКАЯ\",\"district\":null,\"city\":\"НОВОШАХТИНСК\",\"settlement\":null,\"street\":\"КЛАРЫ ЦЕТКИН\",\"house\":\"1-В\",\"building\":null,\"office\":null,\"okved2\":\"56.10\",\"okopf\":14200,\"okato\":null,\"okpo\":null,\"okfs\":null,\"statusCode\":\"ACTIVE\",\"statusDate\":\"2002-11-12\",\"bfo\":{\"period\":\"2021\",\"actualBfoDate\":\"2022-01-12\",\"gainSum\":0,\"knd\":\"0710096\",\"hasAz\":false,\"hasKs\":false,\"actualCorrectionNumber\":0,\"actualCorrectionDate\":\"2022-01-12\",\"isCb\":false,\"bfoPeriodTypes\":[12]}},{\"id\":5720895,\"inn\":\"2460085776\",\"shortName\":\"НП \\\"АЙ<strong>СБЕР</strong>Г\\\"\",\"ogrn\":\"1082400001485\",\"index\":\"660021\",\"region\":\"КРАСНОЯРСКИЙ\",\"district\":null,\"city\":\"КРАСНОЯРСК\",\"settlement\":null,\"street\":\"МИРА\",\"house\":\"122-Б\",\"building\":null,\"office\":\"20\",\"okved2\":\"68.32.2\",\"okopf\":20614,\"okato\":null,\"okpo\":null,\"okfs\":null,\"statusCode\":\"ACTIVE\",\"statusDate\":\"2008-07-16\",\"bfo\":{\"period\":\"2024\",\"actualBfoDate\":\"2025-01-20\",\"gainSum\":null,\"knd\":\"0710096\",\"hasAz\":false,\"hasKs\":false,\"actualCorrectionNumber\":0,\"actualCorrectionDate\":\"2025-01-20\",\"isCb\":false,\"bfoPeriodTypes\":[12]}},{\"id\":6925807,\"inn\":\"5609029904\",\"shortName\":\"\\\"АЙ<strong>СБЕР</strong>Г\\\"\",\"ogrn\":\"1025600896232\",\"index\":\"460052\",\"region\":\"ОРЕНБУРГСКАЯ\",\"district\":null,\"city\":\"ОРЕНБУРГ\",\"settlement\":null,\"street\":\"БРЕСТСКАЯ\",\"house\":\"24\",\"building\":null,\"office\":null,\"okved2\":\"68.32.1\",\"okopf\":20716,\"okato\":null,\"okpo\":null,\"okfs\":null,\"statusCode\":\"ACTIVE\",\"statusDate\":\"2002-12-25\",\"bfo\":{\"period\":\"2023\",\"actualBfoDate\":\"2024-03-29\",\"gainSum\":null,\"knd\":\"0710099\",\"hasAz\":false,\"hasKs\":false,\"actualCorrectionNumber\":0,\"actualCorrectionDate\":\"2024-03-29\",\"isCb\":false,\"bfoPeriodTypes\":[12]}},{\"id\":5417303,\"inn\":\"7810823911\",\"shortName\":\"АО \\\"АЙ<strong>СБЕР</strong>Г\\\"\",\"ogrn\":\"1117847141587\",\"index\":\"195030\",\"region\":\"САНКТ-ПЕТЕРБУРГ\",\"district\":null,\"city\":null,\"settlement\":null,\"street\":\"КОММУНЫ\",\"house\":\"44\",\"building\":\"1\",\"office\":\"195\",\"okved2\":\"77.39\",\"okopf\":12267,\"okato\":null,\"okpo\":null,\"okfs\":null,\"statusCode\":\"ACTIVE\",\"statusDate\":\"2011-04-15\",\"bfo\":{\"period\":\"2024\",\"actualBfoDate\":\"2025-03-31\",\"gainSum\":180,\"knd\":\"0710099\",\"hasAz\":false,\"hasKs\":false,\"actualCorrectionNumber\":0,\"actualCorrectionDate\":\"2025-03-31\",\"isCb\":false,\"bfoPeriodTypes\":[12]}}],\"pageable\":{\"pageNumber\":0,\"pageSize\":20,\"sort\":{\"sorted\":false,\"unsorted\":true,\"empty\":true},\"offset\":0,\"paged\":true,\"unpaged\":false},\"totalPages\":66,\"totalElements\":1307,\"last\":false,\"numberOfElements\":20,\"first\":true,\"size\":20,\"number\":0,\"sort\":{\"sorted\":false,\"unsorted\":true,\"empty\":true},\"empty\":false}"
          },
          "redirectURL": "",
          "headersSize": 159,
          "bodySize": 12762,
          "_transferSize": 12921,
          "_error": null,
          "_fetchedViaServiceWorker": false
        },
        "serverIPAddress": "213.24.64.194",
        "startedDateTime": "2025-07-18T20:30:49.934Z",
        "time": 342.23200008273125,
        "timings": {
          "blocked": 2.947999976068735,
          "dns": -1,
          "ssl": -1,
          "connect": -1,
          "send": 0.15300000000000002,
          "wait": 337.4129999470636,
          "receive": 1.718000159598887,
          "_blocked_queueing": 2.228999976068735,
          "_workerStart": -1,
          "_workerReady": -1,
          "_workerFetchStart": -1,
          "_workerRespondWithSettled": -1
        }
      }
    ]
  }
}